{
  "quiz": [
    {
      "id": 12,
      "name": "Pozycja bezpieczna ustalona",
      "questions": [
        {
          "question": "Co jest pierwszym krokiem podczas ustalania pozycji bocznej ustalonej?",
          "answers": [
            {
              "content": "Sprawdzenie czy poszkodowany leży na plecach",
              "valid": true
            },
            {
              "content": "Zgięcie prawej nogi",
              "valid": false
            },
            {
              "content": "Odchylenie głowy do tyłu",
              "valid": false
            },
            {
              "content": "Obrócenie poszkodowanego w swoim kierunku",
              "valid": false
            }
          ],
          "id": 121
        },
        {
          "question": "W którą stonę powinien zostać obrócony poszkodowany",
          "answers": [
            {
              "content": "Tyłem do osoby udzielającej pomocy",
              "valid": false
            },
            {
              "content": "W stronę osoby udzielającej pomocy",
              "valid": true
            },
            {
              "content": "Bez róźnicy",
              "valid": false
            },
            {
              "content": "Poszkodowanego nie powinno sie obracać",
              "valid": false
            }
          ],
          "id": 122
        },
        {
          "question": "W jakim celu odchyla się główę poszkodowanego",
          "answers": [
            {
              "content": "Aby ocenić czy nie jest ranny",
              "valid": false
            },
            {
              "content": "Aby udrożnić drogi oddechowe",
              "valid": true
            },
            {
              "content": "Aby zobaczyć czy oddycha",
              "valid": false
            },
            {
              "content": "Aby resuscytować poszkodowanego",
              "valid": false
            }
          ],
          "id": 123
        },
        {
          "question": "Pozycję boczna ustaloną stosujemy u poszkodowanych",
          "answers": [
            {
              "content": "z urazami klatki piersiowej",
              "valid": false
            },
            {
              "content": "posiadających oddech",
              "valid": true
            },
            {
              "content": "nie posiadających oddechu",
              "valid": false
            },
            {
              "content": "nieposiadających funkcji życiowych",
              "valid": false
            }
          ],
          "id": 124
        }
      ]
    }
  ]
}