<svg xmlns="http://www.w3.org/2000/svg" width="25.093" height="25.093" viewBox="0 0 25.093 25.093">
  <path id="Path_329" data-name="Path 329" d="M657.4,534.18h16.655v16.832" transform="translate(100.318 866.958) rotate(-135)" fill="none" stroke="#000" stroke-width="2"/>
</svg>
