<svg xmlns="http://www.w3.org/2000/svg" width="39.283" height="58.654" viewBox="0 0 39.283 58.654">
  <path id="iconfinder_Tilda_Icons_1ed_lightbulb_14_3586363" d="M53.477,9.24A19.637,19.637,0,0,0,27.8,38.947a11.8,11.8,0,0,1,3.731,8.067,1.1,1.1,0,0,0,.028.17V57.261a1,1,0,0,0,1.005,1.005h1c.408,2.921,2.555,5.158,5.141,5.158h4.563c2.586,0,4.732-2.237,5.14-5.158h1a1,1,0,0,0,1.005-1.005V47.023s0,0,0-.007a11.039,11.039,0,0,1,3.823-8.13A19.623,19.623,0,0,0,53.477,9.24ZM37.437,28.316H35.893a1.545,1.545,0,1,1,1.545-1.545Zm7.109-1.545a1.545,1.545,0,1,1,1.545,1.545H44.548ZM43.941,47.95H48.41v8.306H33.573V47.95H43.2m-3.752-2.01V30.326h3.094l.023,15.613Zm3.825,15.474H38.71c-1.5,0-2.759-1.343-3.107-3.147H46.379C46.032,60.071,44.772,61.414,43.273,61.414ZM52.888,37.4a13.194,13.194,0,0,0-4.418,8.537h-3.9l-.022-15.613h1.54a3.555,3.555,0,1,0-3.555-3.553l0,1.543h-3.09V26.772a3.555,3.555,0,1,0-3.555,3.555h1.545V45.94h-4a13.644,13.644,0,0,0-4.284-8.483A17.634,17.634,0,1,1,52.888,37.4Z" transform="translate(-21.353 -4.769)"/>
</svg>
