<svg xmlns="http://www.w3.org/2000/svg" width="75.925" height="51.065" viewBox="0 0 75.925 51.065">
  <g id="Group_109" data-name="Group 109" transform="translate(-124.713 -413.664)">
    <circle id="Ellipse_71" data-name="Ellipse 71" cx="5.363" cy="5.363" r="5.363" transform="translate(150.66 414.664)" fill="none" stroke="#161615" stroke-linecap="round" stroke-miterlimit="10" stroke-width="2"/>
    <circle id="Ellipse_72" data-name="Ellipse 72" cx="5.548" cy="5.548" r="5.548" transform="translate(125.713 448.008)" fill="none" stroke="#161615" stroke-linecap="round" stroke-miterlimit="10" stroke-width="2"/>
    <path id="Path_331" data-name="Path 331" d="M162.993,453.41h5.813l13.906-2.461a3.686,3.686,0,0,1,1.678.092l14.361,4.217a4.312,4.312,0,0,1,2.861,5.543h0a4.31,4.31,0,0,1-5.357,2.712c-5-1.559-12.917-4.022-13.034-4-.17.028-6.016.823-6.016.823h-4.714" transform="translate(-2.23 -2.167)" fill="none" stroke="#161615" stroke-linecap="round" stroke-miterlimit="10" stroke-width="2"/>
    <path id="Path_332" data-name="Path 332" d="M152.748,453.364l-8.212-.048a4.291,4.291,0,0,0-4.336,4.29h0a4.291,4.291,0,0,0,4.291,4.291h4.336l9.932,4.143h10.415a3.093,3.093,0,0,0,3.093-3.093h0a3.093,3.093,0,0,0-3.093-3.093h-9.336l-.7-.337" transform="translate(-0.866 -2.312)" fill="none" stroke="#161615" stroke-linecap="round" stroke-miterlimit="10" stroke-width="2"/>
    <path id="Path_333" data-name="Path 333" d="M161.42,452.311l7.484-8.953a2.206,2.206,0,0,0,.4-2.1l-4.216-12.927a2.531,2.531,0,0,0-2.407-1.747H151.8a2.532,2.532,0,0,0-2.418,1.783l-3.815,12.319a2.2,2.2,0,0,0,.376,2.02l7.547,9.553a2.333,2.333,0,0,0,1.831.887h4.306A2.334,2.334,0,0,0,161.42,452.311Z" transform="translate(-1.182 -0.713)" fill="none" stroke="#161615" stroke-linecap="round" stroke-miterlimit="10" stroke-width="2"/>
    <path id="Path_334" data-name="Path 334" d="M154.542,434.313l-2.3,7.208,5.363,6.867,5.956-7.038-2.327-7.038" transform="translate(-1.587 -1.175)" fill="none" stroke="#161615" stroke-linecap="round" stroke-miterlimit="10" stroke-width="2"/>
  </g>
</svg>
